20/D1/AC60mm/F0001CH2.CSV

Record Length,2.500000e+03,,   0.015000000000,  -0.10000,
Sample Interval,2.000000e-05,,   0.015020000000,  -0.10000,
Trigger Point,-7.500000000000e+02,,   0.015040000000,  -0.10000,
,,,   0.015060000000,  -0.10000,
,,,   0.015080000000,  -0.10000,
,,,   0.015100000000,  -0.10000,
Source,CH2,,   0.015120000000,  -0.10000,
Vertical Units,V,,   0.015140000000,  -0.10000,
Vertical Scale,1.000000e-01,,   0.015160000000,  -0.09600,
Vertical Offset,-4.000000e-03,,   0.015180000000,  -0.09600,
Horizontal Units,s,,   0.015200000000,  -0.10000,
Horizontal Scale,5.000000e-03,,   0.015220000000,  -0.09600,
Pt Fmt,Y,,   0.015240000000,  -0.09600,
Yzero,0.000000e+00,,   0.015260000000,  -0.10000,
Probe Atten,1.000000e+00,,   0.015280000000,  -0.09600,
Model Number,TDS2004B,,   0.015300000000,  -0.09600,
Serial Number,C033415,,   0.015320000000,  -0.09600,
Firmware Version,FV:v22.01,,   0.015340000000,  -0.09600,
,,,0.015360000000,  -0.10000,
,,,0.015380000000,  -0.09600,
,,,0.015400000000,  -0.09200,
,,,0.015420000000,  -0.09600,
,,,0.015440000000,  -0.09200,
,,,0.015460000000,  -0.09200,
,,,0.015480000000,  -0.09200,
,,,0.015500000000,  -0.09600,
,,,0.015520000000,  -0.09600,
,,,0.015540000000,  -0.09200,
,,,0.015560000000,  -0.09200,
,,,0.015580000000,  -0.09200,
,,,0.015600000000,  -0.09200,
,,,0.015620000000,  -0.09200,
,,,0.015640000000,  -0.09200,
,,,0.015660000000,  -0.09200,
,,,0.015680000000,  -0.09200,
,,,0.015700000000,  -0.09200,
,,,0.015720000000,  -0.09200,
,,,0.015740000000,  -0.09200,
,,,0.015760000000,  -0.09200,
,,,0.015780000000,  -0.08800,
,,,0.015800000000,  -0.08800,
,,,0.015820000000,  -0.09200,
,,,0.015840000000,  -0.09200,
,,,0.015860000000,  -0.09200,
,,,0.015880000000,  -0.08800,
,,,0.015900000000,  -0.08800,
,,,0.015920000000,  -0.08800,
,,,0.015940000000,  -0.08800,
,,,0.015960000000,  -0.08800,
,,,0.015980000000,  -0.08800,
,,,0.016000000000,  -0.08800,
,,,0.016020000000,  -0.08800,
,,,0.016040000000,  -0.08400,
,,,0.016060000000,  -0.08800,
,,,0.016080000000,  -0.08400,
,,,0.016100000000,  -0.08800,
,,,0.016120000000,  -0.08800,
,,,0.016140000000,  -0.08400,
,,,0.016160000000,  -0.08400,
,,,0.016180000000,  -0.08400,
,,,0.016200000000,  -0.08400,
,,,0.016220000000,  -0.08400,
,,,0.016240000000,  -0.08400,
,,,0.016260000000,  -0.08000,
,,,0.016280000000,  -0.08400,
,,,0.016300000000,  -0.08000,
,,,0.016320000000,  -0.08400,
,,,0.016340000000,  -0.08000,
,,,0.016360000000,  -0.08000,
,,,0.016380000000,  -0.08000,
,,,0.016400000000,  -0.08000,
,,,0.016420000000,  -0.08000,
,,,0.016440000000,  -0.08000,
,,,0.016460000000,  -0.07600,
,,,0.016480000000,  -0.08000,
,,,0.016500000000,  -0.07600,
,,,0.016520000000,  -0.07600,
,,,0.016540000000,  -0.07600,
,,,0.016560000000,  -0.07600,
,,,0.016580000000,  -0.07600,
,,,0.016600000000,  -0.07600,
,,,0.016620000000,  -0.07600,
,,,0.016640000000,  -0.07200,
,,,0.016660000000,  -0.07200,
,,,0.016680000000,  -0.07600,
,,,0.016700000000,  -0.07200,
,,,0.016720000000,  -0.07200,
,,,0.016740000000,  -0.07200,
,,,0.016760000000,  -0.07600,
,,,0.016780000000,  -0.07200,
,,,0.016800000000,  -0.07200,
,,,0.016820000000,  -0.07200,
,,,0.016840000000,  -0.07200,
,,,0.016860000000,  -0.07200,
,,,0.016880000000,  -0.07200,
,,,0.016900000000,  -0.07200,
,,,0.016920000000,  -0.07200,
,,,0.016940000000,  -0.06800,
,,,0.016960000000,  -0.06800,
,,,0.016980000000,  -0.06800,
,,,0.017000000000,  -0.06800,
,,,0.017020000000,  -0.06800,
,,,0.017040000000,  -0.06400,
,,,0.017060000000,  -0.06800,
,,,0.017080000000,  -0.06800,
,,,0.017100000000,  -0.06800,
,,,0.017120000000,  -0.06400,
,,,0.017140000000,  -0.06400,
,,,0.017160000000,  -0.06400,
,,,0.017180000000,  -0.06400,
,,,0.017200000000,  -0.06400,
,,,0.017220000000,  -0.06000,
,,,0.017240000000,  -0.06000,
,,,0.017260000000,  -0.06000,
,,,0.017280000000,  -0.06000,
,,,0.017300000000,  -0.06000,
,,,0.017320000000,  -0.06000,
,,,0.017340000000,  -0.06000,
,,,0.017360000000,  -0.06000,
,,,0.017380000000,  -0.06000,
,,,0.017400000000,  -0.06000,
,,,0.017420000000,  -0.05600,
,,,0.017440000000,  -0.05600,
,,,0.017460000000,  -0.05600,
,,,0.017480000000,  -0.05600,
,,,0.017500000000,  -0.05600,
,,,0.017520000000,  -0.05600,
,,,0.017540000000,  -0.05600,
,,,0.017560000000,  -0.05600,
,,,0.017580000000,  -0.05600,
,,,0.017600000000,  -0.05200,
,,,0.017620000000,  -0.05200,
,,,0.017640000000,  -0.05200,
,,,0.017660000000,  -0.05200,
,,,0.017680000000,  -0.05200,
,,,0.017700000000,  -0.04800,
,,,0.017720000000,  -0.04800,
,,,0.017740000000,  -0.04800,
,,,0.017760000000,  -0.05200,
,,,0.017780000000,  -0.04800,
,,,0.017800000000,  -0.04800,
,,,0.017820000000,  -0.04800,
,,,0.017840000000,  -0.04800,
,,,0.017860000000,  -0.04800,
,,,0.017880000000,  -0.04800,
,,,0.017900000000,  -0.04400,
,,,0.017920000000,  -0.04400,
,,,0.017940000000,  -0.04800,
,,,0.017960000000,  -0.04400,
,,,0.017980000000,  -0.04800,
,,,0.018000000000,  -0.04400,
,,,0.018020000000,  -0.04400,
,,,0.018040000000,  -0.04000,
,,,0.018060000000,  -0.04000,
,,,0.018080000000,  -0.04000,
,,,0.018100000000,  -0.04000,
,,,0.018120000000,  -0.04000,
,,,0.018140000000,  -0.04000,
,,,0.018160000000,  -0.04000,
,,,0.018180000000,  -0.04000,
,,,0.018200000000,  -0.03600,
,,,0.018220000000,  -0.04000,
,,,0.018240000000,  -0.03600,
,,,0.018260000000,  -0.03600,
,,,0.018280000000,  -0.03200,
,,,0.018300000000,  -0.03200,
,,,0.018320000000,  -0.03600,
,,,0.018340000000,  -0.03600,
,,,0.018360000000,  -0.03600,
,,,0.018380000000,  -0.03200,
,,,0.018400000000,  -0.03200,
,,,0.018420000000,  -0.02800,
,,,0.018440000000,  -0.03200,
,,,0.018460000000,  -0.03200,
,,,0.018480000000,  -0.03200,
,,,0.018500000000,  -0.02800,
,,,0.018520000000,  -0.03200,
,,,0.018540000000,  -0.02800,
,,,0.018560000000,  -0.02800,
,,,0.018580000000,  -0.02800,
,,,0.018600000000,  -0.02800,
,,,0.018620000000,  -0.02400,
,,,0.018640000000,  -0.02400,
,,,0.018660000000,  -0.02400,
,,,0.018680000000,  -0.02400,
,,,0.018700000000,  -0.02400,
,,,0.018720000000,  -0.02400,
,,,0.018740000000,  -0.02000,
,,,0.018760000000,  -0.02000,
,,,0.018780000000,  -0.02000,
,,,0.018800000000,  -0.02000,
,,,0.018820000000,  -0.02000,
,,,0.018840000000,  -0.02000,
,,,0.018860000000,  -0.02000,
,,,0.018880000000,  -0.01600,
,,,0.018900000000,  -0.01600,
,,,0.018920000000,  -0.01600,
,,,0.018940000000,  -0.01600,
,,,0.018960000000,  -0.01600,
,,,0.018980000000,  -0.01200,
,,,0.019000000000,  -0.01600,
,,,0.019020000000,  -0.01200,
,,,0.019040000000,  -0.01200,
,,,0.019060000000,  -0.01200,
,,,0.019080000000,  -0.01200,
,,,0.019100000000,  -0.01200,
,,,0.019120000000,  -0.00800,
,,,0.019140000000,  -0.00800,
,,,0.019160000000,  -0.00800,
,,,0.019180000000,  -0.00800,
,,,0.019200000000,  -0.00800,
,,,0.019220000000,  -0.00800,
,,,0.019240000000,  -0.00800,
,,,0.019260000000,  -0.00800,
,,,0.019280000000,  -0.00400,
,,,0.019300000000,  -0.00400,
,,,0.019320000000,  -0.00800,
,,,0.019340000000,  -0.00400,
,,,0.019360000000,  -0.00400,
,,,0.019380000000,  -0.00400,
,,,0.019400000000,   0.00000,
,,,0.019420000000,   0.00000,
,,,0.019440000000,   0.00000,
,,,0.019460000000,   0.00000,
,,,0.019480000000,   0.00000,
,,,0.019500000000,   0.00000,
,,,0.019520000000,   0.00000,
,,,0.019540000000,   0.00400,
,,,0.019560000000,   0.00400,
,,,0.019580000000,   0.00400,
,,,0.019600000000,   0.00400,
,,,0.019620000000,   0.00400,
,,,0.019640000000,   0.00800,
,,,0.019660000000,   0.00800,
,,,0.019680000000,   0.00800,
,,,0.019700000000,   0.00800,
,,,0.019720000000,   0.00800,
,,,0.019740000000,   0.00800,
,,,0.019760000000,   0.00800,
,,,0.019780000000,   0.01200,
,,,0.019800000000,   0.01200,
,,,0.019820000000,   0.01200,
,,,0.019840000000,   0.01200,
,,,0.019860000000,   0.01200,
,,,0.019880000000,   0.01200,
,,,0.019900000000,   0.01200,
,,,0.019920000000,   0.01600,
,,,0.019940000000,   0.01600,
,,,0.019960000000,   0.01600,
,,,0.019980000000,   0.01600,
,,,0.020000000000,   0.02000,
,,,0.020020000000,   0.01600,
,,,0.020040000000,   0.02000,
,,,0.020060000000,   0.02000,
,,,0.020080000000,   0.02000,
,,,0.020100000000,   0.02000,
,,,0.020120000000,   0.02400,
,,,0.020140000000,   0.02400,
,,,0.020160000000,   0.02000,
,,,0.020180000000,   0.02000,
,,,0.020200000000,   0.02400,
,,,0.020220000000,   0.02400,
,,,0.020240000000,   0.02400,
,,,0.020260000000,   0.02800,
,,,0.020280000000,   0.02400,
,,,0.020300000000,   0.02800,
,,,0.020320000000,   0.02800,
,,,0.020340000000,   0.02800,
,,,0.020360000000,   0.02800,
,,,0.020380000000,   0.02800,
,,,0.020400000000,   0.02800,
,,,0.020420000000,   0.03200,
,,,0.020440000000,   0.03200,
,,,0.020460000000,   0.03200,
,,,0.020480000000,   0.03200,
,,,0.020500000000,   0.03200,
,,,0.020520000000,   0.03200,
,,,0.020540000000,   0.03600,
,,,0.020560000000,   0.03600,
,,,0.020580000000,   0.03600,
,,,0.020600000000,   0.03600,
,,,0.020620000000,   0.03600,
,,,0.020640000000,   0.03600,
,,,0.020660000000,   0.03600,
,,,0.020680000000,   0.04000,
,,,0.020700000000,   0.04000,
,,,0.020720000000,   0.04000,
,,,0.020740000000,   0.04000,
,,,0.020760000000,   0.04000,
,,,0.020780000000,   0.04000,
,,,0.020800000000,   0.04400,
,,,0.020820000000,   0.04400,
,,,0.020840000000,   0.04400,
,,,0.020860000000,   0.04400,
,,,0.020880000000,   0.04400,
,,,0.020900000000,   0.04400,
,,,0.020920000000,   0.04400,
,,,0.020940000000,   0.04400,
,,,0.020960000000,   0.04800,
,,,0.020980000000,   0.04800,
,,,0.021000000000,   0.04800,
,,,0.021020000000,   0.04800,
,,,0.021040000000,   0.05200,
,,,0.021060000000,   0.04800,
,,,0.021080000000,   0.05200,
,,,0.021100000000,   0.05200,
,,,0.021120000000,   0.05200,
,,,0.021140000000,   0.05200,
,,,0.021160000000,   0.05200,
,,,0.021180000000,   0.05200,
,,,0.021200000000,   0.05200,
,,,0.021220000000,   0.05600,
,,,0.021240000000,   0.05600,
,,,0.021260000000,   0.05600,
,,,0.021280000000,   0.05600,
,,,0.021300000000,   0.05600,
,,,0.021320000000,   0.06000,
,,,0.021340000000,   0.06000,
,,,0.021360000000,   0.05600,
,,,0.021380000000,   0.06000,
,,,0.021400000000,   0.06000,
,,,0.021420000000,   0.06000,
,,,0.021440000000,   0.06000,
,,,0.021460000000,   0.06000,
,,,0.021480000000,   0.06000,
,,,0.021500000000,   0.06400,
,,,0.021520000000,   0.06400,
,,,0.021540000000,   0.06000,
,,,0.021560000000,   0.06000,
,,,0.021580000000,   0.06400,
,,,0.021600000000,   0.06400,
,,,0.021620000000,   0.06400,
,,,0.021640000000,   0.06800,
,,,0.021660000000,   0.06800,
,,,0.021680000000,   0.06400,
,,,0.021700000000,   0.06800,
,,,0.021720000000,   0.06800,
,,,0.021740000000,   0.06800,
,,,0.021760000000,   0.06800,
,,,0.021780000000,   0.06800,
,,,0.021800000000,   0.07200,
,,,0.021820000000,   0.06800,
,,,0.021840000000,   0.07200,
,,,0.021860000000,   0.07200,
,,,0.021880000000,   0.07200,
,,,0.021900000000,   0.07200,
,,,0.021920000000,   0.07200,
,,,0.021940000000,   0.07200,
,,,0.021960000000,   0.07600,
,,,0.021980000000,   0.07200,
,,,0.022000000000,   0.07600,
,,,0.022020000000,   0.07600,
,,,0.022040000000,   0.07600,
,,,0.022060000000,   0.07600,
,,,0.022080000000,   0.07600,
,,,0.022100000000,   0.08000,
,,,0.022120000000,   0.08000,
,,,0.022140000000,   0.08000,
,,,0.022160000000,   0.08000,
,,,0.022180000000,   0.07600,
,,,0.022200000000,   0.08000,
,,,0.022220000000,   0.08000,
,,,0.022240000000,   0.08400,
,,,0.022260000000,   0.08000,
,,,0.022280000000,   0.08400,
,,,0.022300000000,   0.08400,
,,,0.022320000000,   0.08000,
,,,0.022340000000,   0.08400,
,,,0.022360000000,   0.08400,
,,,0.022380000000,   0.08400,
,,,0.022400000000,   0.08400,
,,,0.022420000000,   0.08400,
,,,0.022440000000,   0.08400,
,,,0.022460000000,   0.08400,
,,,0.022480000000,   0.08800,
,,,0.022500000000,   0.08400,
,,,0.022520000000,   0.08800,
,,,0.022540000000,   0.08400,
,,,0.022560000000,   0.08800,
,,,0.022580000000,   0.08800,
,,,0.022600000000,   0.08800,
,,,0.022620000000,   0.08800,
,,,0.022640000000,   0.08800,
,,,0.022660000000,   0.08400,
,,,0.022680000000,   0.08800,
,,,0.022700000000,   0.08800,
,,,0.022720000000,   0.08800,
,,,0.022740000000,   0.08800,
,,,0.022760000000,   0.09200,
,,,0.022780000000,   0.08800,
,,,0.022800000000,   0.08800,
,,,0.022820000000,   0.09200,
,,,0.022840000000,   0.09200,
,,,0.022860000000,   0.09200,
,,,0.022880000000,   0.09200,
,,,0.022900000000,   0.09200,
,,,0.022920000000,   0.09200,
,,,0.022940000000,   0.09200,
,,,0.022960000000,   0.09200,
,,,0.022980000000,   0.09200,
,,,0.023000000000,   0.09200,
,,,0.023020000000,   0.09200,
,,,0.023040000000,   0.09200,
,,,0.023060000000,   0.09600,
,,,0.023080000000,   0.09600,
,,,0.023100000000,   0.09600,
,,,0.023120000000,   0.09600,
,,,0.023140000000,   0.09600,
,,,0.023160000000,   0.09600,
,,,0.023180000000,   0.09600,
,,,0.023200000000,   0.09600,
,,,0.023220000000,   0.09600,
,,,0.023240000000,   0.09600,
,,,0.023260000000,   0.09600,
,,,0.023280000000,   0.09600,
,,,0.023300000000,   0.09600,
,,,0.023320000000,   0.09600,
,,,0.023340000000,   0.09600,
,,,0.023360000000,   0.09600,
,,,0.023380000000,   0.10000,
,,,0.023400000000,   0.10000,
,,,0.023420000000,   0.10000,
,,,0.023440000000,   0.10000,
,,,0.023460000000,   0.10000,
,,,0.023480000000,   0.10000,
,,,0.023500000000,   0.10000,
,,,0.023520000000,   0.10000,
,,,0.023540000000,   0.10000,
,,,0.023560000000,   0.10000,
,,,0.023580000000,   0.10000,
,,,0.023600000000,   0.10000,
,,,0.023620000000,   0.10000,
,,,0.023640000000,   0.10000,
,,,0.023660000000,   0.10000,
,,,0.023680000000,   0.10000,
,,,0.023700000000,   0.10000,
,,,0.023720000000,   0.10000,
,,,0.023740000000,   0.10000,
,,,0.023760000000,   0.10400,
,,,0.023780000000,   0.10000,
,,,0.023800000000,   0.10000,
,,,0.023820000000,   0.10000,
,,,0.023840000000,   0.10000,
,,,0.023860000000,   0.10400,
,,,0.023880000000,   0.10000,
,,,0.023900000000,   0.10400,
,,,0.023920000000,   0.10000,
,,,0.023940000000,   0.10400,
,,,0.023960000000,   0.10400,
,,,0.023980000000,   0.10400,
,,,0.024000000000,   0.10400,
,,,0.024020000000,   0.10400,
,,,0.024040000000,   0.10400,
,,,0.024060000000,   0.10000,
,,,0.024080000000,   0.10400,
,,,0.024100000000,   0.10400,
,,,0.024120000000,   0.10400,
,,,0.024140000000,   0.10400,
,,,0.024160000000,   0.10400,
,,,0.024180000000,   0.10400,
,,,0.024200000000,   0.10400,
,,,0.024220000000,   0.10400,
,,,0.024240000000,   0.10400,
,,,0.024260000000,   0.10400,
,,,0.024280000000,   0.10400,
,,,0.024300000000,   0.10400,
,,,0.024320000000,   0.10400,
,,,0.024340000000,   0.10400,
,,,0.024360000000,   0.10400,
,,,0.024380000000,   0.10400,
,,,0.024400000000,   0.10400,
,,,0.024420000000,   0.10400,
,,,0.024440000000,   0.10400,
,,,0.024460000000,   0.10400,
,,,0.024480000000,   0.10800,
,,,0.024500000000,   0.10400,
,,,0.024520000000,   0.10400,
,,,0.024540000000,   0.10400,
,,,0.024560000000,   0.10400,
,,,0.024580000000,   0.10400,
,,,0.024600000000,   0.10400,
,,,0.024620000000,   0.10400,
,,,0.024640000000,   0.10400,
,,,0.024660000000,   0.10000,
,,,0.024680000000,   0.10400,
,,,0.024700000000,   0.10400,
,,,0.024720000000,   0.10400,
,,,0.024740000000,   0.10400,
,,,0.024760000000,   0.10400,
,,,0.024780000000,   0.10400,
,,,0.024800000000,   0.10400,
,,,0.024820000000,   0.10400,
,,,0.024840000000,   0.10800,
,,,0.024860000000,   0.10400,
,,,0.024880000000,   0.10400,
,,,0.024900000000,   0.10400,
,,,0.024920000000,   0.10400,
,,,0.024940000000,   0.10400,
,,,0.024960000000,   0.10400,
,,,0.024980000000,   0.10400,
,,,0.025000000000,   0.10400,
,,,0.025020000000,   0.10800,
,,,0.025040000000,   0.10400,
,,,0.025060000000,   0.10400,
,,,0.025080000000,   0.10400,
,,,0.025100000000,   0.10400,
,,,0.025120000000,   0.10400,
,,,0.025140000000,   0.10400,
,,,0.025160000000,   0.10000,
,,,0.025180000000,   0.10400,
,,,0.025200000000,   0.10400,
,,,0.025220000000,   0.10000,
,,,0.025240000000,   0.10400,
,,,0.025260000000,   0.10400,
,,,0.025280000000,   0.10400,
,,,0.025300000000,   0.10400,
,,,0.025320000000,   0.10400,
,,,0.025340000000,   0.10000,
,,,0.025360000000,   0.10400,
,,,0.025380000000,   0.10400,
,,,0.025400000000,   0.10400,
,,,0.025420000000,   0.10400,
,,,0.025440000000,   0.10000,
,,,0.025460000000,   0.10400,
,,,0.025480000000,   0.10000,
,,,0.025500000000,   0.10000,
,,,0.025520000000,   0.10000,
,,,0.025540000000,   0.10000,
,,,0.025560000000,   0.10000,
,,,0.025580000000,   0.10000,
,,,0.025600000000,   0.10000,
,,,0.025620000000,   0.10000,
,,,0.025640000000,   0.10000,
,,,0.025660000000,   0.10000,
,,,0.025680000000,   0.10000,
,,,0.025700000000,   0.10000,
,,,0.025720000000,   0.10000,
,,,0.025740000000,   0.10000,
,,,0.025760000000,   0.10000,
,,,0.025780000000,   0.09600,
,,,0.025800000000,   0.10000,
,,,0.025820000000,   0.10000,
,,,0.025840000000,   0.10000,
,,,0.025860000000,   0.09600,
,,,0.025880000000,   0.09600,
,,,0.025900000000,   0.09600,
,,,0.025920000000,   0.09600,
,,,0.025940000000,   0.09600,
,,,0.025960000000,   0.09600,
,,,0.025980000000,   0.09600,
,,,0.026000000000,   0.09600,
,,,0.026020000000,   0.09600,
,,,0.026040000000,   0.09200,
,,,0.026060000000,   0.09200,
,,,0.026080000000,   0.09600,
,,,0.026100000000,   0.09600,
,,,0.026120000000,   0.09600,
,,,0.026140000000,   0.09200,
,,,0.026160000000,   0.09200,
,,,0.026180000000,   0.09600,
,,,0.026200000000,   0.09200,
,,,0.026220000000,   0.09200,
,,,0.026240000000,   0.09200,
,,,0.026260000000,   0.09200,
,,,0.026280000000,   0.09200,
,,,0.026300000000,   0.09200,
,,,0.026320000000,   0.09200,
,,,0.026340000000,   0.09200,
,,,0.026360000000,   0.09200,
,,,0.026380000000,   0.09200,
,,,0.026400000000,   0.09200,
,,,0.026420000000,   0.09200,
,,,0.026440000000,   0.08800,
,,,0.026460000000,   0.08800,
,,,0.026480000000,   0.08800,
,,,0.026500000000,   0.08800,
,,,0.026520000000,   0.08800,
,,,0.026540000000,   0.08800,
,,,0.026560000000,   0.08800,
,,,0.026580000000,   0.08800,
,,,0.026600000000,   0.08800,
,,,0.026620000000,   0.08400,
,,,0.026640000000,   0.08400,
,,,0.026660000000,   0.08800,
,,,0.026680000000,   0.08400,
,,,0.026700000000,   0.08400,
,,,0.026720000000,   0.08800,
,,,0.026740000000,   0.08400,
,,,0.026760000000,   0.08400,
,,,0.026780000000,   0.08400,
,,,0.026800000000,   0.08400,
,,,0.026820000000,   0.08400,
,,,0.026840000000,   0.08400,
,,,0.026860000000,   0.08400,
,,,0.026880000000,   0.08400,
,,,0.026900000000,   0.08400,
,,,0.026920000000,   0.08000,
,,,0.026940000000,   0.08400,
,,,0.026960000000,   0.08000,
,,,0.026980000000,   0.08000,
,,,0.027000000000,   0.08000,
,,,0.027020000000,   0.08400,
,,,0.027040000000,   0.08000,
,,,0.027060000000,   0.08000,
,,,0.027080000000,   0.07600,
,,,0.027100000000,   0.07600,
,,,0.027120000000,   0.08000,
,,,0.027140000000,   0.08000,
,,,0.027160000000,   0.08000,
,,,0.027180000000,   0.07600,
,,,0.027200000000,   0.07600,
,,,0.027220000000,   0.08000,
,,,0.027240000000,   0.07600,
,,,0.027260000000,   0.07600,
,,,0.027280000000,   0.07600,
,,,0.027300000000,   0.07600,
,,,0.027320000000,   0.07600,
,,,0.027340000000,   0.07200,
,,,0.027360000000,   0.07200,
,,,0.027380000000,   0.07200,
,,,0.027400000000,   0.07200,
,,,0.027420000000,   0.07200,
,,,0.027440000000,   0.07200,
,,,0.027460000000,   0.07200,
,,,0.027480000000,   0.07200,
,,,0.027500000000,   0.07200,
,,,0.027520000000,   0.07200,
,,,0.027540000000,   0.06800,
,,,0.027560000000,   0.06800,
,,,0.027580000000,   0.06800,
,,,0.027600000000,   0.06800,
,,,0.027620000000,   0.06800,
,,,0.027640000000,   0.06800,
,,,0.027660000000,   0.06400,
,,,0.027680000000,   0.06800,
,,,0.027700000000,   0.06800,
,,,0.027720000000,   0.06400,
,,,0.027740000000,   0.06400,
,,,0.027760000000,   0.06800,
,,,0.027780000000,   0.06400,
,,,0.027800000000,   0.06400,
,,,0.027820000000,   0.06400,
,,,0.027840000000,   0.06400,
,,,0.027860000000,   0.06400,
,,,0.027880000000,   0.06000,
,,,0.027900000000,   0.06000,
,,,0.027920000000,   0.06000,
,,,0.027940000000,   0.06000,
,,,0.027960000000,   0.06000,
,,,0.027980000000,   0.06000,
,,,0.028000000000,   0.06000,
,,,0.028020000000,   0.05600,
,,,0.028040000000,   0.06000,
,,,0.028060000000,   0.05600,
