20/D3/10.csv

Model,DPO4104
Firmware Version,2.68

Waveform Type,ANALOG,
Point Format,Y,
Horizontal Units,s,
Horizontal Scale,4e-06,
Horizontal Delay,0.0002508,
Sample Interval,4e-09,
Record Length,10000,
Gating,0.0% to 100.0%,
Probe Attenuation,10,
Vertical Units,V,
Vertical Offset,0,
Vertical Scale,2,
Vertical Position,0,
,,
,,
,,
Label,,
TIME,CH1,CH2
2.30800e-04,4.99406,0.167734
2.30804e-04,4.98,0.167469
2.30808e-04,4.97313,0.167094
2.30812e-04,4.98937,0.166781
2.30816e-04,4.99437,0.169063
2.30820e-04,4.98937,0.167813
2.30824e-04,4.97313,0.170797
2.30828e-04,4.98,0.172203
2.30832e-04,4.98281,0.171594
2.30836e-04,4.99313,0.172828
2.30840e-04,4.995,0.17175
2.30844e-04,4.98031,0.173781
2.30848e-04,4.98,0.172719
2.30852e-04,4.99906,0.172937
2.30856e-04,4.96719,0.174578
2.30860e-04,4.97781,0.172578
2.30864e-04,4.96812,0.175031
2.30868e-04,4.99031,0.176047
2.30872e-04,4.98688,0.172813
2.30876e-04,4.99344,0.175281
2.30880e-04,4.95906,0.175156
2.30884e-04,4.99063,0.177281
2.30888e-04,4.9775,0.176531
2.30892e-04,4.97969,0.175359
2.30896e-04,5.00875,0.17725
2.30900e-04,4.97125,0.177141
2.30904e-04,4.98781,0.176422
2.30908e-04,4.98594,0.177578
2.30912e-04,4.96469,0.177516
2.30916e-04,4.98469,0.178313
2.30920e-04,4.97969,0.178187
2.30924e-04,4.99313,0.180594
2.30928e-04,4.98844,0.179453
2.30932e-04,4.98656,0.178187
2.30936e-04,4.97219,0.179016
2.30940e-04,4.97562,0.182797
2.30944e-04,4.9675,0.181391
2.30948e-04,4.995,0.178609
2.30952e-04,4.98969,0.182281
2.30956e-04,4.97625,0.179875
2.30960e-04,4.97281,0.180297
2.30964e-04,4.9925,0.181953
2.30968e-04,4.98406,0.181313
2.30972e-04,4.97031,0.179688
2.30976e-04,4.99156,0.183359
2.30980e-04,4.97219,0.180531
2.30984e-04,4.97156,0.180891
2.30988e-04,4.96625,0.181609
2.30992e-04,4.98,0.180594
2.30996e-04,4.96812,0.181
2.31000e-04,4.9875,0.183328
2.31004e-04,4.98219,0.181031
2.31008e-04,4.98375,0.183234
2.31012e-04,4.98406,0.182594
2.31016e-04,4.96906,0.179375
2.31020e-04,4.96594,0.181422
2.31024e-04,4.98344,0.180141
2.31028e-04,4.98531,0.180531
2.31032e-04,4.96219,0.180984
2.31036e-04,4.94969,0.181391
2.31040e-04,4.95312,0.181891
2.31044e-04,4.96625,0.180344
2.31048e-04,4.99563,0.182938
2.31052e-04,4.96406,0.183
2.31056e-04,4.98719,0.182297
2.31060e-04,4.965,0.180938
2.31064e-04,4.97531,0.182641
2.31068e-04,4.97719,0.181297
2.31072e-04,4.96188,0.180844
2.31076e-04,4.95844,0.181688
2.31080e-04,4.97125,0.182031
2.31084e-04,4.98906,0.182688
2.31088e-04,4.98781,0.183344
2.31092e-04,4.99063,0.181531
2.31096e-04,4.955,0.183297
2.31100e-04,4.97438,0.182469
2.31104e-04,4.96031,0.182781
2.31108e-04,4.96469,0.183281
2.31112e-04,4.97938,0.182453
2.31116e-04,4.97094,0.184828
2.31120e-04,4.96281,0.182516
2.31124e-04,4.98813,0.183156
2.31128e-04,4.96563,0.185172
2.31132e-04,4.97,0.183094
2.31136e-04,4.96438,0.183531
2.31140e-04,4.96656,0.184922
2.31144e-04,4.9625,0.1835
2.31148e-04,4.96719,0.186391
2.31152e-04,4.97281,0.183063
2.31156e-04,4.98156,0.184453
2.31160e-04,4.93656,0.186906
2.31164e-04,4.95781,0.186688
2.31168e-04,4.9675,0.186266
2.31172e-04,4.97094,0.186266
2.31176e-04,4.98094,0.184531
2.31180e-04,4.95969,0.185406
2.31184e-04,4.98562,0.188359
2.31188e-04,4.97562,0.185172
2.31192e-04,4.96906,0.186875
2.31196e-04,4.9475,0.187297
2.31200e-04,4.96875,0.185562
2.31204e-04,4.97313,0.186188
2.31208e-04,4.96375,0.187312
2.31212e-04,4.96312,0.187984
2.31216e-04,4.97906,0.188203
2.31220e-04,4.965,0.187156
2.31224e-04,4.96594,0.187016
2.31228e-04,4.98313,0.188766
2.31232e-04,4.97938,0.187562
2.31236e-04,4.98813,0.189594
2.31240e-04,4.95875,0.18875
2.31244e-04,4.98,0.187547
2.31248e-04,4.95781,0.190406
2.31252e-04,4.98313,0.187578
2.31256e-04,4.97187,0.188469
2.31260e-04,4.97344,0.191328
2.31264e-04,4.96156,0.190578
2.31268e-04,4.96312,0.191047
2.31272e-04,4.98969,0.192359
2.31276e-04,4.9675,0.191016
2.31280e-04,4.97406,0.191547
2.31284e-04,4.98844,0.192219
2.31288e-04,4.97125,0.190062
2.31292e-04,4.98281,0.192953
2.31296e-04,4.98844,0.192219
2.31300e-04,4.96031,0.190656
2.31304e-04,4.96094,0.193219
2.31308e-04,4.975,0.192906
2.31312e-04,4.94062,0.193406
2.31316e-04,4.96531,0.193219
2.31320e-04,4.96531,0.192156
2.31324e-04,4.95437,0.194641
2.31328e-04,4.96469,0.192656
2.31332e-04,4.965,0.192156
2.31336e-04,4.96312,0.193781
2.31340e-04,4.97625,0.192562
2.31344e-04,4.96312,0.19325
2.31348e-04,4.95625,0.194172
2.31352e-04,4.96438,0.193031
2.31356e-04,4.97625,0.193562
2.31360e-04,4.97687,0.193656
2.31364e-04,4.97719,0.193203
2.31368e-04,4.96875,0.193781
2.31372e-04,4.97187,0.194234
2.31376e-04,4.95812,0.192734
2.31380e-04,4.94875,0.194625
2.31384e-04,4.96812,0.192734
2.31388e-04,4.97625,0.193062
2.31392e-04,4.98344,0.194562
2.31396e-04,4.96438,0.193797
2.31400e-04,4.97125,0.194578
2.31404e-04,4.96312,0.194609
2.31408e-04,4.95719,0.191875
2.31412e-04,4.97187,0.192953
2.31416e-04,4.96625,0.19275
2.31420e-04,4.955,0.191906
2.31424e-04,4.98125,0.194047
2.31428e-04,4.97094,0.193578
2.31432e-04,4.98719,0.192734
2.31436e-04,4.97031,0.194125
2.31440e-04,4.96375,0.192781
2.31444e-04,4.96375,0.194828
2.31448e-04,4.95437,0.195734
2.31452e-04,4.98406,0.193281
2.31456e-04,4.99188,0.194984
2.31460e-04,4.96563,0.193406
2.31464e-04,4.965,0.193609
2.31468e-04,4.95906,0.193609
2.31472e-04,4.96219,0.191547
2.31476e-04,4.9625,0.193391
2.31480e-04,4.97,0.195062
2.31484e-04,4.97219,0.191453
2.31488e-04,4.98438,0.195062
2.31492e-04,4.96438,0.193219
2.31496e-04,4.9725,0.192656
2.31500e-04,4.98281,0.19375
2.31504e-04,4.98438,0.194062
2.31508e-04,4.96312,0.193141
2.31512e-04,4.95406,0.193984
2.31516e-04,4.965,0.191641
2.31520e-04,4.95344,0.194828
2.31524e-04,4.965,0.193734
2.31528e-04,4.97156,0.192141
2.31532e-04,4.95531,0.195172
2.31536e-04,4.97656,0.193531
2.31540e-04,4.95406,0.192922
2.31544e-04,4.9825,0.194109
2.31548e-04,4.94813,0.194062
2.31552e-04,4.96312,0.193188
2.31556e-04,4.97031,0.193766
2.31560e-04,4.96812,0.192188
2.31564e-04,4.98375,0.194266
2.31568e-04,4.94875,0.19375
2.31572e-04,4.95906,0.193719
2.31576e-04,4.9775,0.193375
2.31580e-04,4.98219,0.194312
2.31584e-04,4.97687,0.1945
2.31588e-04,4.98625,0.194906
2.31592e-04,4.98125,0.19375
2.31596e-04,4.97687,0.196641
2.31600e-04,4.96625,0.194203
2.31604e-04,4.98031,0.194641
2.31608e-04,4.96781,0.195312
2.31612e-04,4.94969,0.195844
2.31616e-04,4.99781,0.194281
2.31620e-04,4.96094,0.196828
2.31624e-04,4.97719,0.194203
2.31628e-04,4.95875,0.19675
2.31632e-04,4.94906,0.195844
2.31636e-04,4.99094,0.195062
2.31640e-04,4.95719,0.196438
2.31644e-04,4.93969,0.195922
2.31648e-04,4.98219,0.194875
2.31652e-04,4.9675,0.197563
2.31656e-04,4.98313,0.196719
2.31660e-04,4.99469,0.196719
2.31664e-04,4.97844,0.197859
2.31668e-04,4.9575,0.196641
2.31672e-04,4.98156,0.197406
2.31676e-04,4.96875,0.197313
2.31680e-04,4.99656,0.197953
2.31684e-04,4.95656,0.196438
2.31688e-04,4.96188,0.197969
2.31692e-04,4.96,0.197984
2.31696e-04,4.96906,0.198297
2.31700e-04,4.95563,0.198734
2.31704e-04,4.99281,0.199172
2.31708e-04,4.98156,0.198359
2.31712e-04,4.99469,0.196578
2.31716e-04,4.98375,0.200594
2.31720e-04,4.97094,0.19925
2.31724e-04,4.98469,0.198938
2.31728e-04,4.98656,0.200469
2.31732e-04,4.97375,0.199891
2.31736e-04,4.98125,0.200203
2.31740e-04,4.96125,0.200766
2.31744e-04,4.95688,0.198594
2.31748e-04,4.96969,0.198047
2.31752e-04,4.96969,0.200859
2.31756e-04,4.96156,0.199281
2.31760e-04,4.9775,0.200031
2.31764e-04,4.99563,0.200578
2.31768e-04,4.96531,0.199266
2.31772e-04,4.95656,0.199875
2.31776e-04,4.94937,0.201141
2.31780e-04,4.95906,0.200047
2.31784e-04,4.98094,0.199594
2.31788e-04,4.98062,0.201484
2.31792e-04,4.9825,0.200609
2.31796e-04,4.98344,0.2005
2.31800e-04,4.95344,0.199141
2.31804e-04,4.97438,0.200219
2.31808e-04,4.96625,0.199328
2.31812e-04,4.97063,0.199297
2.31816e-04,4.96781,0.199563
2.31820e-04,4.96281,0.199516
2.31824e-04,4.96219,0.200891
2.31828e-04,4.97031,0.201359
2.31832e-04,4.95969,0.199031
2.31836e-04,4.96531,0.200328
2.31840e-04,4.95844,0.200875
2.31844e-04,4.94969,0.199141
2.31848e-04,4.97219,0.200656
2.31852e-04,4.95938,0.199297
2.31856e-04,4.9875,0.199203
2.31860e-04,4.95219,0.201563
2.31864e-04,4.97156,0.199703
2.31868e-04,4.96563,0.198453
2.31872e-04,4.97375,0.200734
2.31876e-04,4.97844,0.198266
2.31880e-04,4.96312,0.199031
2.31884e-04,4.95969,0.200547
2.31888e-04,4.98937,0.200422
2.31892e-04,4.95375,0.198719
2.31896e-04,4.9575,0.198734
2.31900e-04,4.98219,0.200594
2.31904e-04,4.98031,0.200531
2.31908e-04,4.96406,0.199609
2.31912e-04,4.96469,0.199641
2.31916e-04,4.94875,0.198469
2.31920e-04,4.94062,0.197641
2.31924e-04,4.97938,0.197938
2.31928e-04,4.9725,0.198875
2.31932e-04,4.97562,0.197563
2.31936e-04,4.97469,0.199813
2.31940e-04,4.98031,0.200063
2.31944e-04,4.96063,0.197844
2.31948e-04,4.975,0.199453
2.31952e-04,4.9675,0.198328
2.31956e-04,4.96969,0.199031
2.31960e-04,4.98781,0.197891
2.31964e-04,4.97813,0.198531
2.31968e-04,4.9625,0.199719
2.31972e-04,4.96875,0.199
2.31976e-04,4.98188,0.196281
2.31980e-04,4.9675,0.198875
2.31984e-04,4.96312,0.199281
2.31988e-04,4.95969,0.198438
2.31992e-04,4.97031,0.199328
2.31996e-04,4.96125,0.197328
2.32000e-04,4.9725,0.1975
2.32004e-04,4.98344,0.197938
2.32008e-04,4.97406,0.199281
2.32012e-04,4.97781,0.197641
2.32016e-04,4.94844,0.197453
2.32020e-04,4.97875,0.197203
2.32024e-04,4.96281,0.1995
2.32028e-04,4.95375,0.1995
2.32032e-04,4.98969,0.199219
2.32036e-04,4.975,0.198344
2.32040e-04,4.96844,0.197969
2.32044e-04,4.97281,0.198781
2.32048e-04,4.97438,0.199109
2.32052e-04,4.96687,0.197156
2.32056e-04,4.97,0.200063
2.32060e-04,4.95406,0.198906
2.32064e-04,4.98594,0.198797
2.32068e-04,4.9525,0.199203
2.32072e-04,4.98125,0.199188
2.32076e-04,4.97125,0.198156
2.32080e-04,4.95188,0.200234
2.32084e-04,4.98625,0.199313
2.32088e-04,4.96938,0.199594
2.32092e-04,4.95719,0.198859
2.32096e-04,4.97031,0.198703
2.32100e-04,4.96875,0.200516
2.32104e-04,4.97562,0.199953
2.32108e-04,4.97406,0.200125
2.32112e-04,4.98438,0.201844
2.32116e-04,4.97875,0.19775
2.32120e-04,4.99094,0.198906
2.32124e-04,4.96656,0.202281
2.32128e-04,4.98188,0.200828
2.32132e-04,4.96625,0.202422
2.32136e-04,4.98344,0.199391
2.32140e-04,4.97625,0.200531
2.32144e-04,4.97281,0.202625
2.32148e-04,4.96406,0.201063
2.32152e-04,4.99219,0.200922
2.32156e-04,4.95281,0.202187
2.32160e-04,4.95781,0.199563
2.32164e-04,4.95406,0.202016
2.32168e-04,4.98844,0.202266
2.32172e-04,4.98094,0.2005
2.32176e-04,4.96844,0.201891
2.32180e-04,4.97438,0.199719
2.32184e-04,4.99063,0.200797
2.32188e-04,4.98344,0.203125
2.32192e-04,4.95812,0.200984
2.32196e-04,4.97281,0.201219
2.32200e-04,4.96906,0.20225
2.32204e-04,4.99125,0.201625
2.32208e-04,4.9675,0.201609
2.32212e-04,4.96375,0.202047
2.32216e-04,4.98406,0.201187
2.32220e-04,4.95156,0.203734
2.32224e-04,4.95969,0.202734
2.32228e-04,4.96125,0.201437
2.32232e-04,4.96188,0.202203
2.32236e-04,4.97063,0.202937
2.32240e-04,4.94594,0.202391
2.32244e-04,4.96281,0.203516
2.32248e-04,4.95875,0.201375
2.32252e-04,4.98562,0.203187
2.32256e-04,4.94688,0.201469
2.32260e-04,4.97969,0.201594
2.32264e-04,4.98062,0.203078
2.32268e-04,4.96875,0.201641
2.32272e-04,4.97156,0.201781
2.32276e-04,4.98156,0.203297
2.32280e-04,4.9725,0.200609
2.32284e-04,4.99219,0.202906
2.32288e-04,4.9575,0.201984
2.32292e-04,4.97687,0.201844
2.32296e-04,4.96906,0.203172
2.32300e-04,4.9675,0.20275
2.32304e-04,4.96531,0.203172
2.32308e-04,4.96031,0.204281
2.32312e-04,4.96281,0.202344
2.32316e-04,4.98156,0.201734
2.32320e-04,4.98469,0.202078
2.32324e-04,4.98438,0.201063
2.32328e-04,4.96563,0.20475
2.32332e-04,4.98219,0.201313
2.32336e-04,4.96344,0.201328
2.32340e-04,4.965,0.201547
2.32344e-04,4.96375,0.201984
2.32348e-04,4.95656,0.200813
2.32352e-04,4.98406,0.202344
2.32356e-04,4.97656,0.201094
2.32360e-04,4.97813,0.203109
2.32364e-04,4.96594,0.203375
2.32368e-04,4.99469,0.202187
2.32372e-04,4.97906,0.201766
2.32376e-04,4.97625,0.202125
2.32380e-04,4.95406,0.202781
2.32384e-04,4.96125,0.202094
2.32388e-04,4.9825,0.199906
2.32392e-04,4.9775,0.203234
2.32396e-04,4.96438,0.200766
2.32400e-04,4.98438,0.200734
2.32404e-04,4.96687,0.203391
2.32408e-04,4.97156,0.201656
2.32412e-04,4.9775,0.202703
2.32416e-04,4.95469,0.202219
2.32420e-04,4.97687,0.201391
2.32424e-04,4.98344,0.201156
2.32428e-04,4.96656,0.202078
2.32432e-04,4.98,0.202187
2.32436e-04,4.98062,0.201063
2.32440e-04,4.96563,0.201516
2.32444e-04,4.97094,0.202109
2.32448e-04,4.99937,0.201156
2.32452e-04,4.9925,0.202
2.32456e-04,4.97094,0.203141
2.32460e-04,4.97875,0.199516
2.32464e-04,4.97438,0.201844
2.32468e-04,4.975,0.201687
2.32472e-04,4.99937,0.201047
2.32476e-04,4.94531,0.203141
2.32480e-04,4.96469,0.201781
2.32484e-04,4.98062,0.201719
2.32488e-04,4.965,0.203187
2.32492e-04,4.97875,0.200391
2.32496e-04,4.96719,0.201797
2.32500e-04,4.96625,0.202078
2.32504e-04,4.97,0.201828
2.32508e-04,4.98062,0.202047
2.32512e-04,4.97781,0.203063
2.32516e-04,4.98,0.203578
2.32520e-04,4.99688,0.202031
2.32524e-04,4.96469,0.202844
2.32528e-04,4.98,0.20275
2.32532e-04,4.96219,0.202594
2.32536e-04,4.97562,0.203656
2.32540e-04,4.965,0.201953
2.32544e-04,4.98562,0.203156
2.32548e-04,4.96375,0.203344
2.32552e-04,4.97969,0.202422
2.32556e-04,4.98156,0.202766
2.32560e-04,4.97531,0.202391
2.32564e-04,4.98375,0.202359
2.32568e-04,4.99125,0.202875
2.32572e-04,4.975,0.203703
2.32576e-04,4.98531,0.204891
2.32580e-04,4.98438,0.204094
2.32584e-04,4.98719,0.203984
2.32588e-04,4.98344,0.204016
2.32592e-04,4.95,0.204
2.32596e-04,4.96781,0.204469
2.32600e-04,4.98813,0.205094
2.32604e-04,5.00406,0.204781
2.32608e-04,4.97281,0.204234
2.32612e-04,4.97187,0.205609
2.32616e-04,4.96031,0.204891
2.32620e-04,4.95312,0.202828
2.32624e-04,4.94125,0.206297
2.32628e-04,4.98125,0.204672
2.32632e-04,4.985,0.204125
2.32636e-04,4.96156,0.205109
2.32640e-04,4.96156,0.203094
2.32644e-04,4.96344,0.203797
2.32648e-04,4.96375,0.205063
2.32652e-04,4.96406,0.203594
2.32656e-04,4.97625,0.203484
2.32660e-04,4.99,0.204125
2.32664e-04,4.98062,0.204047
2.32668e-04,4.99313,0.203906
2.32672e-04,4.98219,0.205469
2.32676e-04,4.97344,0.203297
2.32680e-04,4.97969,0.203828
2.32684e-04,4.96531,0.204687
2.32688e-04,4.96281,0.205078
2.32692e-04,4.9975,0.205594
2.32696e-04,4.96969,0.204391
2.32700e-04,4.99563,0.205813
2.32704e-04,4.96875,0.203516
2.32708e-04,4.97687,0.204172
2.32712e-04,4.98625,0.206719
2.32716e-04,4.98781,0.204734
2.32720e-04,4.98156,0.203125
2.32724e-04,4.97281,0.204437
2.32728e-04,4.99875,0.204141
2.32732e-04,4.97625,0.205281
2.32736e-04,4.97469,0.204828
2.32740e-04,4.96031,0.202234
2.32744e-04,4.96438,0.20425
2.32748e-04,4.98188,0.204313
2.32752e-04,5.00938,0.204063
2.32756e-04,4.98594,0.206313
2.32760e-04,4.96656,0.202391
2.32764e-04,4.98719,0.205453
2.32768e-04,4.97063,0.205609
2.32772e-04,4.98469,0.203609
2.32776e-04,4.98594,0.205031
2.32780e-04,4.97719,0.204953
2.32784e-04,4.98,0.205156
2.32788e-04,4.98156,0.203531
2.32792e-04,4.98719,0.20275
2.32796e-04,5.00281,0.203422
2.32800e-04,4.97875,0.204531
2.32804e-04,4.98844,0.203641
2.32808e-04,4.98062,0.205203
2.32812e-04,4.98969,0.203
2.32816e-04,4.97094,0.203344
2.32820e-04,4.98219,0.204219
2.32824e-04,4.97781,0.201422
2.32828e-04,4.99031,0.202719
2.32832e-04,4.97781,0.204625
2.32836e-04,4.98813,0.2025
2.32840e-04,4.96375,0.203844
2.32844e-04,4.99094,0.204641
2.32848e-04,4.98719,0.203031
2.32852e-04,4.97125,0.203859
2.32856e-04,4.98438,0.203125
2.32860e-04,4.97125,0.201422
2.32864e-04,4.97469,0.203375
2.32868e-04,4.95594,0.202906
2.32872e-04,4.97094,0.203297
2.32876e-04,4.9675,0.203641
2.32880e-04,4.96875,0.204016
2.32884e-04,4.96156,0.202125
2.32888e-04,4.97656,0.204484
2.32892e-04,4.95594,0.203203
2.32896e-04,4.96438,0.203219
2.32900e-04,4.99031,0.201734
2.32904e-04,4.9625,0.202016
2.32908e-04,4.97813,0.202937
2.32912e-04,4.95969,0.201625
2.32916e-04,4.97375,0.202609
2.32920e-04,5.00188,0.20475
2.32924e-04,4.97063,0.203422
2.32928e-04,4.97469,0.203469
2.32932e-04,4.98813,0.20325
2.32936e-04,4.98656,0.202344
2.32940e-04,4.96281,0.203641
2.32944e-04,4.96375,0.202469
2.32948e-04,4.96563,0.202953
2.32952e-04,4.9925,0.205609
2.32956e-04,4.96719,0.202844
2.32960e-04,4.99344,0.203828
2.32964e-04,4.97531,0.203625
2.32968e-04,4.97438,0.2015
2.32972e-04,4.96281,0.203359
2.32976e-04,4.97469,0.203031
2.32980e-04,4.98313,0.203141
2.32984e-04,4.97375,0.204453
2.32988e-04,4.98031,0.202422
2.32992e-04,4.97656,0.204094
2.32996e-04,4.98375,0.204266
2.33000e-04,4.9725,0.203672
2.33004e-04,4.97562,0.205047
2.33008e-04,4.96375,0.204875
2.33012e-04,4.97906,0.204484
2.33016e-04,4.96906,0.205016
2.33020e-04,4.97969,0.204141
2.33024e-04,4.96687,0.203766
2.33028e-04,4.99188,0.20575
2.33032e-04,4.985,0.204687
2.33036e-04,4.96906,0.202375
2.33040e-04,4.98906,0.204313
2.33044e-04,4.97,0.203437
2.33048e-04,4.97562,0.205187
2.33052e-04,4.98469,0.204063
2.33056e-04,4.97094,0.203516
2.33060e-04,4.97313,0.203906
2.33064e-04,4.99094,0.205953
2.33068e-04,4.97844,0.204563
2.33072e-04,4.98875,0.204375
2.33076e-04,4.96812,0.204313
2.33080e-04,4.98906,0.205141
2.33084e-04,4.97781,0.206687
2.33088e-04,5.0075,0.204594
2.33092e-04,4.98094,0.204219
2.33096e-04,4.97469,0.203875
2.33100e-04,4.97844,0.20575
2.33104e-04,4.97687,0.206
2.33108e-04,4.99031,0.204719
2.33112e-04,4.96656,0.205078
2.33116e-04,4.97594,0.205219
2.33120e-04,4.97781,0.204109
2.33124e-04,4.96844,0.205469
2.33128e-04,4.97156,0.205484
2.33132e-04,4.9875,0.203875
2.33136e-04,5.00094,0.204516
2.33140e-04,4.97219,0.205437
2.33144e-04,4.99469,0.204422
2.33148e-04,4.97406,0.204047
2.33152e-04,4.99469,0.203453
2.33156e-04,4.98531,0.204891
2.33160e-04,5.00188,0.205156
2.33164e-04,4.96812,0.205734
2.33168e-04,4.96531,0.205078
2.33172e-04,4.97375,0.204578
2.33176e-04,5.01562,0.204531
2.33180e-04,4.98219,0.205937
2.33184e-04,4.98125,0.204266
2.33188e-04,5.01031,0.204313
2.33192e-04,4.97469,0.207078
2.33196e-04,4.97813,0.204859
2.33200e-04,4.97,0.205437
2.33204e-04,4.98562,0.205359
2.33208e-04,4.98719,0.204969
2.33212e-04,4.99344,0.203547
2.33216e-04,4.97656,0.204
2.33220e-04,4.965,0.203953
2.33224e-04,4.98656,0.205187
2.33228e-04,4.975,0.204656
2.33232e-04,4.98188,0.2045
2.33236e-04,4.97938,0.203937
2.33240e-04,4.99437,0.203359
2.33244e-04,5.00344,0.205063
2.33248e-04,4.9875,0.203797
2.33252e-04,4.94875,0.205
2.33256e-04,5.00625,0.205484
2.33260e-04,4.98406,0.205516
2.33264e-04,4.97031,0.203031
2.33268e-04,4.97687,0.2055
2.33272e-04,4.96531,0.203609
2.33276e-04,4.98656,0.20425
2.33280e-04,4.96938,0.205594
2.33284e-04,4.97781,0.204563
2.33288e-04,4.99,0.203656
2.33292e-04,4.985,0.205375
2.33296e-04,4.95219,0.204453
2.33300e-04,4.9775,0.205609
2.33304e-04,4.98031,0.204406
2.33308e-04,4.98594,0.204141
2.33312e-04,5.00125,0.204969
2.33316e-04,4.99563,0.203313
2.33320e-04,4.96969,0.203078
2.33324e-04,4.99563,0.20525
2.33328e-04,5.005,0.204703
2.33332e-04,4.98438,0.204531
2.33336e-04,4.98344,0.204391
2.33340e-04,4.9825,0.203422
2.33344e-04,4.99969,0.203016
2.33348e-04,4.99094,0.203844
2.33352e-04,4.98344,0.203156
2.33356e-04,4.98813,0.206453
2.33360e-04,4.99094,0.202906
2.33364e-04,4.98313,0.204734
2.33368e-04,4.9825,0.203766
2.33372e-04,4.98031,0.204234
2.33376e-04,4.965,0.204031
2.33380e-04,4.99375,0.203875
2.33384e-04,4.98594,0.204234
2.33388e-04,4.98688,0.205234
2.33392e-04,4.98313,0.203859
2.33396e-04,4.97844,0.205078
2.33400e-04,4.99625,0.203687
2.33404e-04,4.98406,0.203453
2.33408e-04,4.99,0.206547
2.33412e-04,4.97406,0.205328
2.33416e-04,4.96844,0.203156
2.33420e-04,4.98906,0.204391
2.33424e-04,4.96344,0.206328
2.33428e-04,4.97,0.203859
2.33432e-04,5.00656,0.204672
2.33436e-04,4.98188,0.205469
2.33440e-04,4.98844,0.205344
2.33444e-04,4.98531,0.205687
2.33448e-04,4.99031,0.203703
2.33452e-04,5.01875,0.205203
2.33456e-04,4.97313,0.205641
2.33460e-04,4.98094,0.203859
2.33464e-04,4.99219,0.205406
2.33468e-04,5.00344,0.204937
2.33472e-04,4.975,0.205203
2.33476e-04,4.97156,0.206187
2.33480e-04,4.99281,0.205375
2.33484e-04,4.98375,0.205781
2.33488e-04,4.99281,0.20525
2.33492e-04,4.97344,0.204922
2.33496e-04,4.98406,0.204922
2.33500e-04,4.9725,0.204563
2.33504e-04,4.98438,0.204828
2.33508e-04,4.97438,0.206297
2.33512e-04,4.98188,0.206
2.33516e-04,4.9875,0.205297
2.33520e-04,4.99063,0.205172
2.33524e-04,4.9875,0.204266
2.33528e-04,4.98844,0.205609
2.33532e-04,4.99594,0.206813
2.33536e-04,4.99812,0.205875
2.33540e-04,5.01219,0.206281
