20/D3/5.csv

Model,DPO4104
Firmware Version,2.68

Waveform Type,ANALOG,
Point Format,Y,
Horizontal Units,s,
Horizontal Scale,4e-06,
Horizontal Delay,0.00024,
Sample Interval,4e-09,
Record Length,10000,
Gating,0.0% to 100.0%,
Probe Attenuation,10,
Vertical Units,V,
Vertical Offset,0,
Vertical Scale,2,
Vertical Position,0,
,,
,,
,,
Label,,
TIME,CH1,CH2
2.20000e-04,0.26375,0.00345313
2.20004e-04,0.262188,0.00239062
2.20008e-04,0.28375,0.00528125
2.20012e-04,0.302812,0.00453125
2.20016e-04,0.295313,0.00342188
2.20020e-04,0.291563,0.00696875
2.20024e-04,0.293125,0.0051875
2.20028e-04,0.300312,0.00576562
2.20032e-04,0.310312,0.00535938
2.20036e-04,0.31375,0.00504688
2.20040e-04,0.339375,0.0071875
2.20044e-04,0.339062,0.00509375
2.20048e-04,0.34,0.00578125
2.20052e-04,0.34375,0.00603125
2.20056e-04,0.366875,0.00570312
2.20060e-04,0.374063,0.00809375
2.20064e-04,0.372188,0.00604688
2.20068e-04,0.412187,0.00715625
2.20072e-04,0.389375,0.00917187
2.20076e-04,0.404688,0.00684375
2.20080e-04,0.405,0.00907812
2.20084e-04,0.420313,0.0103594
2.20088e-04,0.410938,0.00553125
2.20092e-04,0.432812,0.0085625
2.20096e-04,0.401562,0.00810938
2.20100e-04,0.430625,0.0094375
2.20104e-04,0.45875,0.00851563
2.20108e-04,0.47,0.00898438
2.20112e-04,0.47125,0.00892188
2.20116e-04,0.46125,0.0106563
2.20120e-04,0.491875,0.00835938
2.20124e-04,0.484687,0.00840625
2.20128e-04,0.476875,0.0105313
2.20132e-04,0.482813,0.0094375
2.20136e-04,0.512813,0.00990625
2.20140e-04,0.518437,0.0107656
2.20144e-04,0.5275,0.0106094
2.20148e-04,0.535,0.0118594
2.20152e-04,0.549687,0.00976562
2.20156e-04,0.523438,0.0116406
2.20160e-04,0.569375,0.0111094
2.20164e-04,0.590313,0.0116875
2.20168e-04,0.561562,0.0113281
2.20172e-04,0.6025,0.0114687
2.20176e-04,0.60875,0.01175
2.20180e-04,0.58625,0.0119844
2.20184e-04,0.595625,0.0117188
2.20188e-04,0.615625,0.012375
2.20192e-04,0.618125,0.0132656
2.20196e-04,0.623125,0.0117031
2.20200e-04,0.630313,0.0122188
2.20204e-04,0.649062,0.0148125
2.20208e-04,0.659062,0.0138438
2.20212e-04,0.638125,0.0147344
2.20216e-04,0.659687,0.014125
2.20220e-04,0.66125,0.0131562
2.20224e-04,0.676563,0.013625
2.20228e-04,0.700313,0.0145938
2.20232e-04,0.695937,0.0135
2.20236e-04,0.700313,0.0153437
2.20240e-04,0.697187,0.0156406
2.20244e-04,0.70125,0.0144844
2.20248e-04,0.716562,0.01625
2.20252e-04,0.721875,0.0169219
2.20256e-04,0.735,0.0165781
2.20260e-04,0.750313,0.0156875
2.20264e-04,0.74375,0.0166875
2.20268e-04,0.765938,0.0153437
2.20272e-04,0.768125,0.015625
2.20276e-04,0.778438,0.0179844
2.20280e-04,0.790625,0.0175
2.20284e-04,0.792188,0.016875
2.20288e-04,0.800625,0.0182031
2.20292e-04,0.805937,0.0173125
2.20296e-04,0.808438,0.0167969
2.20300e-04,0.818125,0.0192344
2.20304e-04,0.826562,0.0171875
2.20308e-04,0.829375,0.0194531
2.20312e-04,0.846562,0.018125
2.20316e-04,0.852187,0.0176563
2.20320e-04,0.859375,0.019125
2.20324e-04,0.849688,0.0194375
2.20328e-04,0.9,0.0199063
2.20332e-04,0.906875,0.0191719
2.20336e-04,0.885938,0.0194375
2.20340e-04,0.885313,0.019125
2.20344e-04,0.904375,0.0216406
2.20348e-04,0.930625,0.0199531
2.20352e-04,0.9225,0.0207969
2.20356e-04,0.927188,0.0203125
2.20360e-04,0.93875,0.0211094
2.20364e-04,0.917813,0.0212188
2.20368e-04,0.959688,0.0207031
2.20372e-04,0.955,0.0200938
2.20376e-04,0.975625,0.0218906
2.20380e-04,0.9775,0.0201719
2.20384e-04,0.993125,0.0249531
2.20388e-04,0.9975,0.022125
2.20392e-04,1.02156,0.0213125
2.20396e-04,1.02031,0.024875
2.20400e-04,1.0325,0.0225
2.20404e-04,1.03406,0.0227031
2.20408e-04,1.00313,0.0245625
2.20412e-04,1.02531,0.0224687
2.20416e-04,1.04563,0.0224375
2.20420e-04,1.06406,0.0262344
2.20424e-04,1.04969,0.0218594
2.20428e-04,1.0825,0.025
2.20432e-04,1.0625,0.0254844
2.20436e-04,1.0925,0.0245781
2.20440e-04,1.11281,0.0258438
2.20444e-04,1.12688,0.0255781
2.20448e-04,1.1325,0.0239375
2.20452e-04,1.11563,0.0271406
2.20456e-04,1.12875,0.0250625
2.20460e-04,1.15094,0.0251406
2.20464e-04,1.14094,0.0274063
2.20468e-04,1.15187,0.0243281
2.20472e-04,1.16125,0.0268906
2.20476e-04,1.16125,0.0269375
2.20480e-04,1.165,0.0261562
2.20484e-04,1.185,0.0282813
2.20488e-04,1.18813,0.0272344
2.20492e-04,1.18125,0.0274375
2.20496e-04,1.21125,0.0289063
2.20500e-04,1.21562,0.0258281
2.20504e-04,1.20469,0.0285469
2.20508e-04,1.225,0.0297031
2.20512e-04,1.24375,0.0257813
2.20516e-04,1.23438,0.0314688
2.20520e-04,1.27063,0.0284531
2.20524e-04,1.2775,0.0272344
2.20528e-04,1.26313,0.0307187
2.20532e-04,1.26531,0.0281406
2.20536e-04,1.27625,0.0270625
2.20540e-04,1.2675,0.0319219
2.20544e-04,1.29469,0.0286875
2.20548e-04,1.2925,0.0301719
2.20552e-04,1.28281,0.0309062
2.20556e-04,1.32563,0.0294531
2.20560e-04,1.32438,0.03175
2.20564e-04,1.33688,0.0305312
2.20568e-04,1.36438,0.0307812
2.20572e-04,1.34563,0.0320312
2.20576e-04,1.35813,0.0300625
2.20580e-04,1.36438,0.0311406
2.20584e-04,1.37469,0.0344844
2.20588e-04,1.375,0.0310937
2.20592e-04,1.37219,0.0330469
2.20596e-04,1.40844,0.0318281
2.20600e-04,1.36563,0.0302031
2.20604e-04,1.39062,0.032625
2.20608e-04,1.40938,0.0320156
2.20612e-04,1.43,0.0329375
2.20616e-04,1.42656,0.0365781
2.20620e-04,1.45219,0.0332344
2.20624e-04,1.46188,0.0338594
2.20628e-04,1.43188,0.0367188
2.20632e-04,1.47094,0.0329531
2.20636e-04,1.46406,0.0365156
2.20640e-04,1.49063,0.0355469
2.20644e-04,1.48875,0.032875
2.20648e-04,1.47906,0.0356406
2.20652e-04,1.50906,0.0356875
2.20656e-04,1.51281,0.0335625
2.20660e-04,1.52531,0.0355625
2.20664e-04,1.50781,0.0337187
2.20668e-04,1.55219,0.0342812
2.20672e-04,1.54156,0.0369375
2.20676e-04,1.54812,0.0352656
2.20680e-04,1.5475,0.037875
2.20684e-04,1.55156,0.0362813
2.20688e-04,1.59719,0.03425
2.20692e-04,1.59906,0.0379219
2.20696e-04,1.58094,0.0364688
2.20700e-04,1.58813,0.0380313
2.20704e-04,1.59563,0.0385781
2.20708e-04,1.62281,0.0359063
2.20712e-04,1.63688,0.038875
2.20716e-04,1.60344,0.0385469
2.20720e-04,1.64031,0.0363438
2.20724e-04,1.66375,0.0403594
2.20728e-04,1.645,0.0379219
2.20732e-04,1.64281,0.0369375
2.20736e-04,1.64938,0.0419687
2.20740e-04,1.66813,0.0385
2.20744e-04,1.6825,0.0380625
2.20748e-04,1.68469,0.0424375
2.20752e-04,1.69562,0.0383438
2.20756e-04,1.72188,0.0406875
2.20760e-04,1.71437,0.0424062
2.20764e-04,1.72031,0.0390938
2.20768e-04,1.75313,0.0415469
2.20772e-04,1.72813,0.0401562
2.20776e-04,1.72875,0.0380313
2.20780e-04,1.74375,0.0423594
2.20784e-04,1.7775,0.0413594
2.20788e-04,1.77344,0.0407812
2.20792e-04,1.76344,0.0425937
2.20796e-04,1.79438,0.0414219
2.20800e-04,1.8025,0.0429062
2.20804e-04,1.78969,0.043375
2.20808e-04,1.80031,0.0422812
2.20812e-04,1.81438,0.0437344
2.20816e-04,1.81344,0.0418594
2.20820e-04,1.80469,0.0412031
2.20824e-04,1.86219,0.0452969
2.20828e-04,1.86938,0.0424844
2.20832e-04,1.85563,0.0431719
2.20836e-04,1.85094,0.0458594
2.20840e-04,1.86406,0.0430156
2.20844e-04,1.8525,0.045
2.20848e-04,1.8775,0.0465781
2.20852e-04,1.89312,0.0425781
2.20856e-04,1.91906,0.0466563
2.20860e-04,1.91156,0.0467031
2.20864e-04,1.91406,0.0444219
2.20868e-04,1.92281,0.0472188
2.20872e-04,1.92594,0.0443438
2.20876e-04,1.94375,0.0454063
2.20880e-04,1.93312,0.0496562
2.20884e-04,1.96688,0.0444063
2.20888e-04,1.9675,0.0469219
2.20892e-04,1.96094,0.0481094
2.20896e-04,1.98656,0.0458906
2.20900e-04,1.99,0.0483281
2.20904e-04,2.00156,0.0478906
2.20908e-04,1.99219,0.0461875
2.20912e-04,1.99156,0.0496562
2.20916e-04,2.03313,0.0474375
2.20920e-04,2.02594,0.0490781
2.20924e-04,2.02469,0.0485937
2.20928e-04,2.04688,0.0464531
2.20932e-04,2.04563,0.0497031
2.20936e-04,2.01219,0.0492344
2.20940e-04,2.05938,0.0465781
2.20944e-04,2.04937,0.0508281
2.20948e-04,2.06688,0.0467344
2.20952e-04,2.09875,0.0506875
2.20956e-04,2.10781,0.0508594
2.20960e-04,2.09469,0.0501094
2.20964e-04,2.10031,0.0509531
2.20968e-04,2.12312,0.0502344
2.20972e-04,2.13656,0.0510938
2.20976e-04,2.1525,0.052
2.20980e-04,2.13875,0.0521563
2.20984e-04,2.15375,0.0494062
2.20988e-04,2.14938,0.0517969
2.20992e-04,2.15437,0.0519375
2.20996e-04,2.18906,0.0522656
2.21000e-04,2.16469,0.0536719
2.21004e-04,2.16719,0.0515156
2.21008e-04,2.19375,0.0520781
2.21012e-04,2.20531,0.0520469
2.21016e-04,2.19,0.0510156
2.21020e-04,2.21,0.0510781
2.21024e-04,2.23687,0.0519688
2.21028e-04,2.2225,0.052875
2.21032e-04,2.23094,0.0545625
2.21036e-04,2.22844,0.0540313
2.21040e-04,2.25719,0.054625
2.21044e-04,2.27438,0.0543906
2.21048e-04,2.29594,0.0546719
2.21052e-04,2.2775,0.0539688
2.21056e-04,2.30219,0.0551406
2.21060e-04,2.30313,0.0548438
2.21064e-04,2.30156,0.0541406
2.21068e-04,2.28594,0.0547969
2.21072e-04,2.3325,0.0560312
2.21076e-04,2.34437,0.0558906
2.21080e-04,2.35188,0.0557344
2.21084e-04,2.3675,0.0550469
2.21088e-04,2.33625,0.0564219
2.21092e-04,2.34813,0.0555469
2.21096e-04,2.37469,0.0573437
2.21100e-04,2.3825,0.0571406
2.21104e-04,2.38187,0.0556563
2.21108e-04,2.41562,0.0575937
2.21112e-04,2.40938,0.0580156
2.21116e-04,2.40781,0.0576875
2.21120e-04,2.40531,0.0586719
2.21124e-04,2.42656,0.0575156
2.21128e-04,2.43594,0.0570781
2.21132e-04,2.42125,0.058375
2.21136e-04,2.43312,0.0582187
2.21140e-04,2.45469,0.0589219
2.21144e-04,2.46875,0.0584687
2.21148e-04,2.46844,0.0596563
2.21152e-04,2.505,0.0590625
2.21156e-04,2.48219,0.058875
2.21160e-04,2.47875,0.0595938
2.21164e-04,2.47406,0.0605313
2.21168e-04,2.4975,0.0593594
2.21172e-04,2.53,0.0599375
2.21176e-04,2.51625,0.0619688
2.21180e-04,2.51438,0.0599688
2.21184e-04,2.51094,0.0628125
2.21188e-04,2.5225,0.0605938
2.21192e-04,2.55625,0.0608906
2.21196e-04,2.55563,0.0631719
2.21200e-04,2.58438,0.0617188
2.21204e-04,2.57313,0.0611875
2.21208e-04,2.58594,0.0637344
2.21212e-04,2.57812,0.0620781
2.21216e-04,2.59594,0.061625
2.21220e-04,2.58875,0.0635469
2.21224e-04,2.59187,0.0625
2.21228e-04,2.61875,0.0633906
2.21232e-04,2.64625,0.0635781
2.21236e-04,2.635,0.0630312
2.21240e-04,2.64688,0.062875
2.21244e-04,2.6225,0.06425
2.21248e-04,2.63437,0.0630469
2.21252e-04,2.64719,0.0630469
2.21256e-04,2.66969,0.0633906
2.21260e-04,2.67125,0.0653594
2.21264e-04,2.66156,0.0629219
2.21268e-04,2.69,0.0635312
2.21272e-04,2.70562,0.0647656
2.21276e-04,2.69813,0.0642969
2.21280e-04,2.70312,0.0675781
2.21284e-04,2.71313,0.065125
2.21288e-04,2.71906,0.064375
2.21292e-04,2.73125,0.0667344
2.21296e-04,2.74438,0.0670938
2.21300e-04,2.77156,0.0652812
2.21304e-04,2.77875,0.0675469
2.21308e-04,2.79937,0.065125
2.21312e-04,2.775,0.0652344
2.21316e-04,2.76844,0.0673906
2.21320e-04,2.78469,0.0661875
2.21324e-04,2.80625,0.0676094
2.21328e-04,2.79813,0.0674375
2.21332e-04,2.83094,0.0677188
2.21336e-04,2.83188,0.0683281
2.21340e-04,2.84406,0.0677188
2.21344e-04,2.84469,0.0683437
2.21348e-04,2.84469,0.0682187
2.21352e-04,2.84469,0.0681719
2.21356e-04,2.84563,0.0691563
2.21360e-04,2.87656,0.0680313
2.21364e-04,2.89062,0.0707344
2.21368e-04,2.89219,0.0715625
2.21372e-04,2.87281,0.0707344
2.21376e-04,2.89031,0.0695469
2.21380e-04,2.92281,0.0715469
2.21384e-04,2.92844,0.0700313
2.21388e-04,2.92969,0.0710937
2.21392e-04,2.94063,0.0713906
2.21396e-04,2.93656,0.0687969
2.21400e-04,2.92875,0.0722344
2.21404e-04,2.93812,0.0730625
2.21408e-04,2.97094,0.0706875
2.21412e-04,2.98062,0.0727344
2.21416e-04,2.9825,0.0722187
2.21420e-04,2.96563,0.07275
2.21424e-04,2.99281,0.0730469
2.21428e-04,2.97875,0.0724531
2.21432e-04,3.00937,0.0721875
2.21436e-04,3.02781,0.074125
2.21440e-04,3.03187,0.0712656
2.21444e-04,3.01063,0.0741719
2.21448e-04,3.03938,0.0735937
2.21452e-04,3.02563,0.0717344
2.21456e-04,3.0275,0.0765
2.21460e-04,3.055,0.0735625
2.21464e-04,3.06094,0.0733906
2.21468e-04,3.06875,0.0747188
2.21472e-04,3.08156,0.0721406
2.21476e-04,3.10594,0.0765781
2.21480e-04,3.12062,0.0756875
2.21484e-04,3.11688,0.0749531
2.21488e-04,3.11906,0.0777344
2.21492e-04,3.10281,0.0761562
2.21496e-04,3.11781,0.0750313
2.21500e-04,3.14562,0.0784531
2.21504e-04,3.14438,0.0756719
2.21508e-04,3.14938,0.0759844
2.21512e-04,3.16031,0.0783438
2.21516e-04,3.19344,0.0743125
2.21520e-04,3.17094,0.0783906
2.21524e-04,3.15781,0.0792812
2.21528e-04,3.1925,0.0747969
2.21532e-04,3.17344,0.0785
2.21536e-04,3.22156,0.0783906
2.21540e-04,3.21531,0.0780312
2.21544e-04,3.25,0.0790938
2.21548e-04,3.26,0.0771719
2.21552e-04,3.2625,0.0783906
2.21556e-04,3.24094,0.0766406
2.21560e-04,3.25906,0.077875
2.21564e-04,3.25906,0.078875
2.21568e-04,3.29125,0.0798594
2.21572e-04,3.28563,0.0777969
2.21576e-04,3.29281,0.080125
2.21580e-04,3.30906,0.0798125
2.21584e-04,3.28781,0.0794844
2.21588e-04,3.33281,0.0818594
2.21592e-04,3.31406,0.0794531
2.21596e-04,3.32156,0.0807812
2.21600e-04,3.32094,0.082875
2.21604e-04,3.35406,0.0793281
2.21608e-04,3.37469,0.0831875
2.21612e-04,3.36187,0.0828906
2.21616e-04,3.37312,0.079125
2.21620e-04,3.3675,0.0829063
2.21624e-04,3.375,0.0830313
2.21628e-04,3.40563,0.0804688
2.21632e-04,3.37281,0.0857187
2.21636e-04,3.44156,0.0830938
2.21640e-04,3.41969,0.0828438
2.21644e-04,3.44687,0.0847813
2.21648e-04,3.44406,0.08125
2.21652e-04,3.44437,0.0828594
2.21656e-04,3.44469,0.0854063
2.21660e-04,3.46188,0.0822656
2.21664e-04,3.45312,0.0854219
2.21668e-04,3.49375,0.0849844
2.21672e-04,3.47344,0.0842344
2.21676e-04,3.48937,0.0860469
2.21680e-04,3.505,0.0845625
2.21684e-04,3.51156,0.0861406
2.21688e-04,3.51469,0.0851719
2.21692e-04,3.52094,0.0831094
2.21696e-04,3.5225,0.0868594
2.21700e-04,3.51375,0.0853281
2.21704e-04,3.55625,0.0851719
2.21708e-04,3.56813,0.0862656
2.21712e-04,3.57344,0.0865156
2.21716e-04,3.56563,0.0876719
2.21720e-04,3.58719,0.0893125
2.21724e-04,3.56813,0.0867031
2.21728e-04,3.5875,0.0861719
2.21732e-04,3.59531,0.0882031
2.21736e-04,3.61938,0.0858281
2.21740e-04,3.65938,0.0885937
2.21744e-04,3.63719,0.0888437
2.21748e-04,3.64688,0.0852813
2.21752e-04,3.65125,0.0904219
2.21756e-04,3.65063,0.0881094
2.21760e-04,3.66375,0.0866719
2.21764e-04,3.65625,0.09025
2.21768e-04,3.65969,0.0891094
2.21772e-04,3.68875,0.0886563
2.21776e-04,3.66719,0.0907031
2.21780e-04,3.70094,0.0887344
2.21784e-04,3.72531,0.0904531
2.21788e-04,3.72188,0.0914688
2.21792e-04,3.71094,0.0900313
2.21796e-04,3.72156,0.0925156
2.21800e-04,3.75125,0.0896875
2.21804e-04,3.74125,0.0914219
2.21808e-04,3.75531,0.0925156
2.21812e-04,3.78469,0.0899063
2.21816e-04,3.77094,0.09075
2.21820e-04,3.7525,0.0944219
2.21824e-04,3.77656,0.0915469
2.21828e-04,3.77719,0.0938281
2.21832e-04,3.79875,0.0918438
2.21836e-04,3.80938,0.0920938
2.21840e-04,3.84156,0.0938594
2.21844e-04,3.81875,0.0914219
2.21848e-04,3.81594,0.0921562
2.21852e-04,3.82375,0.0960625
2.21856e-04,3.84094,0.0912656
2.21860e-04,3.85781,0.0941562
2.21864e-04,3.86156,0.0949688
2.21868e-04,3.86281,0.0919844
2.21872e-04,3.86969,0.0934531
2.21876e-04,3.885,0.0959219
2.21880e-04,3.88437,0.0941875
2.21884e-04,3.86719,0.0962188
2.21888e-04,3.89688,0.0959375
2.21892e-04,3.905,0.0946094
2.21896e-04,3.90281,0.0966406
2.21900e-04,3.94469,0.0946875
2.21904e-04,3.93438,0.0973594
2.21908e-04,3.94813,0.0975469
2.21912e-04,3.93562,0.0959844
2.21916e-04,3.95312,0.0962344
2.21920e-04,3.95781,0.0961094
2.21924e-04,3.97,0.0965469
2.21928e-04,3.98281,0.0960938
2.21932e-04,3.9775,0.0971875
2.21936e-04,3.98969,0.0982031
2.21940e-04,3.99906,0.0985156
2.21944e-04,3.99281,0.0971875
2.21948e-04,4.01094,0.0978594
2.21952e-04,4.01719,0.0988594
2.21956e-04,4.02406,0.0970156
2.21960e-04,4.0325,0.101719
2.21964e-04,4.04719,0.100469
2.21968e-04,4.0425,0.0985625
2.21972e-04,4.06375,0.10025
2.21976e-04,4.08781,0.0969688
2.21980e-04,4.09187,0.0992031
2.21984e-04,4.0975,0.100281
2.21988e-04,4.10031,0.0982031
2.21992e-04,4.11219,0.100016
2.21996e-04,4.12,0.101609
2.22000e-04,4.13438,0.101125
2.22004e-04,4.12719,0.100687
2.22008e-04,4.15031,0.101203
2.22012e-04,4.15469,0.102453
2.22016e-04,4.13969,0.100797
2.22020e-04,4.15406,0.100125
2.22024e-04,4.19313,0.103344
2.22028e-04,4.15625,0.0997656
2.22032e-04,4.22125,0.10125
2.22036e-04,4.20844,0.102578
2.22040e-04,4.20406,0.101391
2.22044e-04,4.18844,0.102172
2.22048e-04,4.22031,0.103125
2.22052e-04,4.21063,0.101297
2.22056e-04,4.23156,0.105891
2.22060e-04,4.26406,0.104156
2.22064e-04,4.25969,0.102719
2.22068e-04,4.26687,0.104406
2.22072e-04,4.26719,0.103047
2.22076e-04,4.25438,0.103844
2.22080e-04,4.28594,0.104641
2.22084e-04,4.27875,0.105516
2.22088e-04,4.29969,0.104422
2.22092e-04,4.31531,0.105375
2.22096e-04,4.29531,0.104781
2.22100e-04,4.32031,0.107469
2.22104e-04,4.33219,0.105766
2.22108e-04,4.31937,0.104594
2.22112e-04,4.33344,0.105984
2.22116e-04,4.32531,0.106188
2.22120e-04,4.36125,0.106219
2.22124e-04,4.36125,0.106906
2.22128e-04,4.37625,0.105734
2.22132e-04,4.38219,0.109078
2.22136e-04,4.40437,0.106531
2.22140e-04,4.38125,0.108031
2.22144e-04,4.41563,0.110172
2.22148e-04,4.41781,0.106313
2.22152e-04,4.39906,0.107875
2.22156e-04,4.405,0.110391
2.22160e-04,4.45688,0.106828
2.22164e-04,4.43094,0.109328
2.22168e-04,4.45906,0.109922
2.22172e-04,4.45906,0.10725
2.22176e-04,4.46563,0.110328
2.22180e-04,4.47094,0.111188
2.22184e-04,4.49625,0.10925
2.22188e-04,4.51094,0.110703
2.22192e-04,4.47625,0.109609
2.22196e-04,4.50219,0.111375
2.22200e-04,4.51813,0.109547
2.22204e-04,4.51406,0.110109
2.22208e-04,4.53969,0.111109
2.22212e-04,4.52625,0.111
2.22216e-04,4.56187,0.111219
2.22220e-04,4.5575,0.113
2.22224e-04,4.55438,0.109906
2.22228e-04,4.56469,0.112703
2.22232e-04,4.58344,0.112219
2.22236e-04,4.6075,0.111453
2.22240e-04,4.61281,0.113937
2.22244e-04,4.60562,0.113797
2.22248e-04,4.62219,0.113047
2.22252e-04,4.6025,0.113922
2.22256e-04,4.62375,0.112234
2.22260e-04,4.61906,0.112359
2.22264e-04,4.63625,0.116859
2.22268e-04,4.64688,0.111922
2.22272e-04,4.67844,0.115062
2.22276e-04,4.67,0.116969
2.22280e-04,4.65906,0.113453
2.22284e-04,4.67625,0.114547
2.22288e-04,4.66156,0.115078
2.22292e-04,4.69062,0.115734
2.22296e-04,4.7025,0.115266
2.22300e-04,4.70375,0.115172
2.22304e-04,4.70906,0.116062
2.22308e-04,4.72031,0.116609
2.22312e-04,4.73656,0.115187
2.22316e-04,4.73719,0.116406
2.22320e-04,4.76281,0.116922
2.22324e-04,4.75594,0.1175
2.22328e-04,4.73781,0.118063
2.22332e-04,4.76656,0.117531
2.22336e-04,4.75594,0.118875
2.22340e-04,4.77094,0.118188
2.22344e-04,4.75906,0.116875
2.22348e-04,4.7925,0.117031
2.22352e-04,4.80781,0.118875
2.22356e-04,4.79594,0.117813
2.22360e-04,4.80813,0.118281
2.22364e-04,4.80938,0.118719
2.22368e-04,4.80313,0.116359
2.22372e-04,4.81031,0.118391
2.22376e-04,4.80625,0.118875
2.22380e-04,4.81031,0.116297
2.22384e-04,4.82125,0.119625
2.22388e-04,4.81969,0.119672
2.22392e-04,4.82281,0.116812
2.22396e-04,4.82656,0.119625
2.22400e-04,4.80781,0.118344
2.22404e-04,4.81125,0.118734
2.22408e-04,4.81094,0.120719
2.22412e-04,4.81969,0.117578
2.22416e-04,4.83,0.120344
2.22420e-04,4.81969,0.12
2.22424e-04,4.79688,0.119188
2.22428e-04,4.83031,0.119234
2.22432e-04,4.80187,0.119875
2.22436e-04,4.79938,0.119438
2.22440e-04,4.81281,0.120906
2.22444e-04,4.78875,0.117344
2.22448e-04,4.77,0.121156
2.22452e-04,4.77688,0.117938
2.22456e-04,4.79031,0.116844
2.22460e-04,4.78594,0.122109
2.22464e-04,4.77469,0.117109
2.22468e-04,4.77125,0.118078
2.22472e-04,4.755,0.120594
2.22476e-04,4.73875,0.118406
2.22480e-04,4.75812,0.118078
2.22484e-04,4.73719,0.119406
2.22488e-04,4.73625,0.115062
2.22492e-04,4.73562,0.119188
2.22496e-04,4.71687,0.119438
2.22500e-04,4.73031,0.116391
2.22504e-04,4.69969,0.118313
2.22508e-04,4.69125,0.117406
2.22512e-04,4.68094,0.116016
2.22516e-04,4.69844,0.119719
2.22520e-04,4.68313,0.117062
2.22524e-04,4.68438,0.116172
2.22528e-04,4.67375,0.118766
2.22532e-04,4.6525,0.114953
2.22536e-04,4.65969,0.117031
2.22540e-04,4.6475,0.118188
2.22544e-04,4.64625,0.115703
2.22548e-04,4.64813,0.116937
2.22552e-04,4.62938,0.115422
2.22556e-04,4.62656,0.113469
2.22560e-04,4.60062,0.115594
2.22564e-04,4.60656,0.113766
2.22568e-04,4.6,0.115156
2.22572e-04,4.58531,0.116953
2.22576e-04,4.5775,0.113969
2.22580e-04,4.55625,0.116312
2.22584e-04,4.5625,0.114812
2.22588e-04,4.54531,0.112969
2.22592e-04,4.55875,0.1155
2.22596e-04,4.53969,0.112953
2.22600e-04,4.53719,0.112406
2.22604e-04,4.53094,0.115266
2.22608e-04,4.52406,0.113484
2.22612e-04,4.51313,0.112422
2.22616e-04,4.50812,0.113859
2.22620e-04,4.50312,0.111469
2.22624e-04,4.48219,0.113766
2.22628e-04,4.46,0.11225
2.22632e-04,4.4725,0.109891
2.22636e-04,4.45312,0.113312
2.22640e-04,4.46563,0.110703
2.22644e-04,4.4625,0.109125
2.22648e-04,4.44406,0.113062
2.22652e-04,4.4275,0.111344
2.22656e-04,4.42531,0.110922
